{
    "jobExecutionUrl" : "http://induction-dev-t3.gwynniebee.com:8080/t3-inventoryManagementBi",
    "jobDefinition" : {
        "jobName": "t3-inventoryManagementBi",
        "paramMap" : {
        }
    },
    "schedule" : {
        "type" : "cron",
        "params" : {
            "CronExpression" : "0 0 12 * * ?"
        }
    },
    "notificationMap" : [ {
        "type" : "failure",
        "mode" : "email",
        "channel" : "gb-error-qa@gwynniebee.com"
    } ]
}
